Logo with Gimmicks – Kopie von Hubert Baechli zum Testen:
…
run_LOGO("QUIT")

Testing Back

run_LOGO("CS")

# A tibble: 1 × 7
  format width height colorspace matte filesize density
  <chr>  <int>  <int> <chr>      <lgl>    <int> <chr>  
1 gif      600    600 sRGB       FALSE        0 59x59  

run_LOGO("SPEED 1")
run_LOGO("FD 200 lt 90 fd 50 lt 90")

# A tibble: 82 × 7
   format width height colorspace matte filesize density
   <chr>  <int>  <int> <chr>      <lgl>    <int> <chr>  
 1 gif      600    600 sRGB       FALSE        0 59x59  
 2 gif        1      1 sRGB       TRUE         0 59x59  
 3 gif        1      1 sRGB       TRUE         0 59x59  
 4 gif        1      1 sRGB       TRUE         0 59x59  
 5 gif        1      1 sRGB       TRUE         0 59x59  
 6 gif       39     13 sRGB       FALSE        0 59x59  
 7 gif        1      1 sRGB       TRUE         0 59x59  
 8 gif        1      1 sRGB       TRUE         0 59x59  
 9 gif        1      1 sRGB       TRUE         0 59x59  
10 gif        1      1 sRGB       TRUE         0 59x59  
# ℹ 72 more rows

run_LOGO("FD 400 ")

# A tibble: 102 × 7
   format width height colorspace matte filesize density
   <chr>  <int>  <int> <chr>      <lgl>    <int> <chr>  
 1 gif      600    600 sRGB       FALSE        0 59x59  
 2 gif        1      1 sRGB       TRUE         0 59x59  
 3 gif        1      1 sRGB       TRUE         0 59x59  
 4 gif        1      1 sRGB       TRUE         0 59x59  
 5 gif        1      1 sRGB       TRUE         0 59x59  
 6 gif        1      1 sRGB       TRUE         0 59x59  
 7 gif        1      1 sRGB       TRUE         0 59x59  
 8 gif        1      1 sRGB       TRUE         0 59x59  
 9 gif        1      1 sRGB       TRUE         0 59x59  
10 gif        1      1 sRGB       TRUE         0 59x59  
# ℹ 92 more rows
…
run_LOGO("bk 400")

# A tibble: 102 × 7
   format width height colorspace matte filesize density
   <chr>  <int>  <int> <chr>      <lgl>    <int> <chr>  
 1 gif      600    600 sRGB       FALSE        0 59x59  
 2 gif        1      1 sRGB       TRUE         0 59x59  
 3 gif        1      1 sRGB       TRUE         0 59x59  
 4 gif        1      1 sRGB       TRUE         0 59x59  
 5 gif        1      1 sRGB       TRUE         0 59x59  
 6 gif        1      1 sRGB       TRUE         0 59x59  
 7 gif        1      1 sRGB       TRUE         0 59x59  
 8 gif        1      1 sRGB       TRUE         0 59x59  
 9 gif        1      1 sRGB       TRUE         0 59x59  
10 gif        1      1 sRGB       TRUE         0 59x59  
# ℹ 92 more rows
…
